<svg class='Sprite-Svg' version="1.1" xmlns="http://www.w3.org/2000/svg" xmlns:xlink="http://www.w3.org/1999/xlink" enable-background="new 0 0 176.3 47" xml:space="preserve" x="0px" y="0px">
	<symbol id="arrow" viewBox="0 0 15 9">
		<polygon points="7.5,9 0,1.2 1.1,0 7.5,6.7 13.9,0 15,1.2 "/>
	</symbol>
	<symbol id="triangle" viewBox="-1.5 -0.6 31 16">
		<polygon fill="none" stroke="#D8332B" stroke-width="1" points="13.8,14.3 0,0 27.5,0 "/>
	</symbol>
	<symbol id="arrow-thin" viewBox="0 0 22 42">
		<polyline fill="none" points="21,1 1,21 21,41"/>
	</symbol>
	<symbol id="bubble" viewBox="0 0 176.3 47">
		<path fill="none" stroke="#FFFFFF" stroke-width="2" d="M170.9,1H15.4C13,1,11,3,11,5.4V31l-8.2,7.9L11,38
	v3.6c0,2.5,2,4.4,4.4,4.4h155.5c2.5,0,4.4-2,4.4-4.4V5.4C175.3,3,173.4,1,170.9,1z"/>
	</symbol>
	<symbol id="microscope" viewBox="0 0 35 44">
		<path fill="#383838" d="M28.4,42.1H1.9l1.2-2.3h14.5c0.3,0,0.7-0.2,0.7-0.6l1.2-7.5h4.3c0.3,0,0.5-0.1,0.7-0.4
	c1.9-3.8,2.1-7.3,0.6-10.1c-0.3-0.6-0.7-1.2-1.1-1.6c0.5-0.3,1-0.6,1.4-1.1c0.1-0.1,0.2-0.3,0.4-0.4c0.5,0.6,1,1.4,1.4,2.1
	c1.1,2.1,2,5.7,0.1,10.6c-0.1,0.2,0,0.5,0.1,0.7c0.1,0.2,0.4,0.3,0.6,0.3h0.4L28.4,42.1L28.4,42.1z M18.1,14.9c0-2,1.6-3.6,3.6-3.6
	h0.3h0.1c0,0,0.1,0,0.2,0c0,0,0.1,0,0.1,0c0,0,0.1,0,0.2,0c0,0,0.1,0,0.1,0c1.5,0.5,2.5,1.8,2.5,3.4c0,0.6-0.1,1.1-0.4,1.5
	c0,0.1-0.1,0.1-0.1,0.2c0,0,0,0.1,0,0.1c0,0.1-0.1,0.1-0.1,0.2c0,0,0,0-0.1,0.1c0,0.1-0.1,0.1-0.2,0.2l0,0c-0.2,0.2-0.4,0.3-0.6,0.5
	c0,0,0,0,0,0c-0.1,0-0.2,0.1-0.3,0.1c0,0,0,0-0.1,0c-0.1,0-0.1,0.1-0.2,0.1c0,0-0.1,0-0.1,0c-0.1,0-0.2,0-0.2,0
	c-0.3,0.1-0.6,0.1-0.9,0.1C20.1,18.5,18.1,17,18.1,14.9 M15.4,22.6l-1.2-0.7l-2.7-1.5l-1.2-0.7L20.7,1.7l5.1,3l-3,5.2
	c0,0-0.1,0-0.2,0h0c0,0-0.1,0-0.2,0h0h-0.2h0h-0.2c-2.8,0-5.1,2.3-5.1,5.1v0.4v0c0,0.1,0,0.3,0,0.4v0c0,0.1,0,0.3,0.1,0.4v0
	c0,0.1,0.1,0.3,0.1,0.4c0,0.1,0.1,0.3,0.2,0.4c0,0.1,0.1,0.2,0.2,0.4c0,0.1,0.1,0.2,0.2,0.3c0,0,0,0,0,0c0.1,0.1,0.1,0.2,0.2,0.3
	c0,0,0,0,0,0L15.4,22.6z M11.9,24.3l-1.4-0.8l0.9-1.6l1.4,0.8L11.9,24.3z M12.8,27.9L7,24.6l0.4-0.7l5.8,3.3L12.8,27.9z M29.1,30.1
	L29.1,30.1c1.5-4.8,0.5-8.5-0.6-10.8c-0.5-1-1.2-2-1.9-2.8c0.2-0.5,0.3-1.1,0.3-1.6c0-1.9-1.1-3.6-2.6-4.4l3.3-5.7
	c0.1-0.1,0.1-0.4,0.1-0.6c0-0.2-0.2-0.3-0.3-0.4l-6.4-3.7c-0.3-0.2-0.8-0.1-1,0.3L8.7,19.5c-0.1,0.1-0.1,0.4-0.1,0.6
	c0,0.2,0.2,0.3,0.3,0.4l1.2,0.7L9,23.2l-1.5-0.9c-0.1-0.1-0.4-0.1-0.6-0.1c-0.2,0-0.3,0.2-0.4,0.3l-1.1,1.9c-0.2,0.3-0.1,0.8,0.3,1
	l7,4.1c0.1,0,0.2,0.1,0.4,0.1c0.2,0,0.5-0.1,0.6-0.4l1.1-1.9c0.1-0.1,0.1-0.4,0.1-0.6c0-0.2-0.2-0.3-0.3-0.4L13,25.4l1.1-1.9
	l1.2,0.7c0.1,0,0.2,0.1,0.4,0.1c0.2,0,0.5-0.1,0.6-0.4l2.7-4.7c0.8,0.5,1.6,0.7,2.6,0.7c0.2,0,0.5,0,0.8,0c0.4,0.4,0.9,1,1.3,1.8
	c1.2,2.4,1.1,5.2-0.4,8.4h-4.5c-0.3,0-0.7,0.2-0.7,0.6l-0.2,1.5H4.4c-0.4,0-0.7,0.3-0.7,0.7s0.3,0.7,0.7,0.7h13.2l-0.7,4.5H2.6
	c-0.3,0-0.5,0.1-0.7,0.4l-1.9,3.8c-0.1,0.2-0.1,0.5,0,0.7c0.1,0.2,0.4,0.3,0.6,0.3h28.4c0.4,0,0.7-0.3,0.7-0.7V30.8
	C29.8,30.5,29.5,30.1,29.1,30.1"/>
	</symbol>
	<symbol id="list" viewBox="0 0 35 44">
<path fill="#383838" d="M25.9,29c0,0.5-0.5,0.9-1,0.9H6.1c-0.6,0-1-0.5-1-0.9V3c0-0.5,0.5-0.9,1-0.9h18.8c0.6-0.1,1,0.4,1,0.9V29z
	 M24.8,1H6.1C5,1,4,1.9,4,3v26c0,1.1,1,2,2.1,2h18.8c1.1,0,2.1-0.9,2.1-2V3C27,1.9,26,1,24.8,1"/>
<path fill="#383838" d="M7.5,7h8C15.8,7,16,6.8,16,6.5C16,6.2,15.8,6,15.5,6h-8C7.3,6,7,6.2,7,6.5C7,6.8,7.3,7,7.5,7"/>
<path fill="#383838" d="M21.5,10h-14C7.2,10,7,10.2,7,10.5S7.2,11,7.5,11h14c0.3,0,0.5-0.2,0.5-0.5S21.8,10,21.5,10"/>
<path fill="#383838" d="M7.5,15h13c0.3,0,0.5-0.2,0.5-0.5c0-0.3-0.2-0.5-0.5-0.5h-13C7.2,14,7,14.2,7,14.5C7,14.8,7.2,15,7.5,15"/>
<path fill="#383838" d="M22.5,19h-15C7.2,19,7,19.2,7,19.5C7,19.8,7.2,20,7.5,20h15c0.3,0,0.5-0.2,0.5-0.5C23,19.2,22.8,19,22.5,19"
	/>
<path fill="#383838" d="M15.5,23h-8C7.3,23,7,23.2,7,23.5S7.3,24,7.5,24h8c0.3,0,0.5-0.2,0.5-0.5C16,23.2,15.7,23,15.5,23"/>
	</symbol>
	<symbol id="zoom" viewBox="0 0 35 44">
		<path fill="#383838" d="M27.9,22.8c0-0.3-0.3-0.5-0.6-0.5c-0.3,0-0.6,0.3-0.6,0.6v0.6c-1.5,0.8-3.2,1.3-4.9,1.4v-0.6
	c0-0.3-0.3-0.6-0.6-0.6c-0.3,0-0.6,0.3-0.6,0.6v0.6c-4.8-0.2-8.9-3.3-10.5-7.6l3.5-2.9c0.2,0.2,0.5,0.3,0.9,0.4v0.9
	c0,0.3,0.3,0.6,0.6,0.6c0.3,0,0.6-0.3,0.6-0.6v-0.9c0.4-0.1,0.8-0.3,1.1-0.6l2.2,1.4c-0.1,0.2-0.1,0.5-0.1,0.7
	c0,1.1,0.8,2.1,1.8,2.3v0.9c0,0.3,0.3,0.6,0.6,0.6c0.3,0,0.6-0.3,0.6-0.6v-0.9c1-0.3,1.8-1.2,1.8-2.3c0-0.5-0.1-0.9-0.4-1.3l2.9-3
	c0.2,0.1,0.4,0.2,0.6,0.2v0.9c0,0.3,0.3,0.6,0.6,0.6c0.3,0,0.6-0.3,0.6-0.6v-0.9c0.3-0.1,0.7-0.2,0.9-0.5l3.8,2.8
	c0.1,0,0.1,0.1,0.2,0.1C32.4,18.1,30.5,21,27.9,22.8 M4.4,31.6C4,32,2.9,31.8,2,30.9C1.2,30,1,28.9,1.3,28.5c0,0,0,0,0,0l8.6-8.6
	c0.8,1.2,1.8,2.3,2.8,3.3L4.4,31.6z M15.6,13.6c-0.2,0.1-0.4,0.1-0.6,0.1s-0.3,0-0.5-0.1c-0.4-0.1-0.7-0.5-0.7-0.9v-0.2
	c0-0.7,0.6-1.2,1.2-1.2c0.7,0,1.2,0.6,1.2,1.2v0.1C16.2,13,15.9,13.4,15.6,13.6 M22.4,16.4c0,0.7-0.6,1.2-1.2,1.2
	c-0.7,0-1.2-0.6-1.2-1.2v0c0-0.4,0.3-0.8,0.6-1c0.2-0.1,0.4-0.1,0.6-0.1c0.1,0,0.2,0,0.3,0c0.4,0.1,0.7,0.4,0.9,0.8
	C22.4,16.1,22.4,16.2,22.4,16.4 M27.8,11c-0.1,0.1-0.3,0.1-0.5,0.1c-0.1,0-0.2,0-0.3,0c-0.4-0.1-0.8-0.4-0.9-0.8
	c-0.1-0.1-0.1-0.3-0.1-0.4c0-0.7,0.6-1.2,1.2-1.2c0.7,0,1.2,0.6,1.2,1.2v0.1C28.5,10.5,28.2,10.9,27.8,11 M21.1,1.2
	C27.7,1.2,33,6.5,33,13v0.3l-3.5-2.6c0.1-0.3,0.2-0.6,0.2-0.9c0-1.3-1.1-2.4-2.4-2.4c-1.3,0-2.4,1.1-2.4,2.4c0,0.5,0.1,0.9,0.4,1.3
	l-2.9,3c-0.3-0.2-0.8-0.3-1.2-0.3c-0.7,0-1.2,0.3-1.7,0.7l-2.2-1.3c0.1-0.2,0.1-0.5,0.1-0.8c0-1.3-1.1-2.4-2.4-2.4
	c-1.3,0-2.4,1.1-2.4,2.4c0,0.4,0.1,0.7,0.2,1l-3.2,2.6c-0.3-1-0.4-2-0.4-3.1C9.3,6.5,14.6,1.2,21.1,1.2 M21.1,0
	c-7.2,0-13,5.9-13,13.1c0,1.5,0.2,2.9,0.7,4.2v0c0.2,0.5,0.4,1,0.6,1.5l-8.9,8.9c0,0,0,0,0,0.1c-0.8,0.9-0.5,2.6,0.8,3.9
	C2,32.5,3,33,3.9,33c0.5,0,1-0.1,1.3-0.5l8.6-8.6c2.1,1.4,4.6,2.2,7.3,2.2c7.2,0,13-5.8,13-13C34.1,5.9,28.3,0,21.1,0"/>
<path fill="#383838" d="M21.2,20.9c-0.3,0-0.6,0.3-0.6,0.6v0.9c0,0.3,0.3,0.6,0.6,0.6c0.3,0,0.6-0.3,0.6-0.6v-0.9
	C21.8,21.2,21.5,20.9,21.2,20.9"/>
<path fill="#383838" d="M15,17.2c-0.3,0-0.6,0.3-0.6,0.6v1.4c0,0.3,0.3,0.6,0.6,0.6c0.3,0,0.6-0.3,0.6-0.6v-1.4
	C15.6,17.5,15.4,17.2,15,17.2"/>
<path fill="#383838" d="M15,20.7c-0.3,0-0.6,0.3-0.6,0.6v0.5c0,0.3,0.3,0.6,0.6,0.6c0.3,0,0.6-0.3,0.6-0.6v-0.5
	C15.6,21,15.4,20.7,15,20.7"/>
<path fill="#383838" d="M27.3,14.8c-0.3,0-0.6,0.3-0.6,0.6v1.4c0,0.3,0.3,0.6,0.6,0.6c0.3,0,0.6-0.3,0.6-0.6v-1.4
	C27.9,15,27.6,14.8,27.3,14.8"/>
<path fill="#383838" d="M27.3,18.4c-0.3,0-0.6,0.3-0.6,0.6v1.4c0,0.3,0.3,0.6,0.6,0.6c0.3,0,0.6-0.3,0.6-0.6V19
	C27.9,18.6,27.6,18.4,27.3,18.4"/>
	</symbol>
	<symbol id="easel" viewBox="0 0 46 35">
		<path fill="#D9332B" d="M5.8,5.8h34.5v22.2H5.8V5.8z M22,0v3.8H0v2h3.8V30h13.8l-9.3,2.6l0.6,1.9L22,30.8v2.9h2v-3.1l13.7,3.9
	l0.6-1.9L29,30h13.3V5.8h3.8v-2H24V0H22z"/>
	</symbol>

	<symbol id="guy-01" viewBox="0 0 45 48">
		<path d="M32.6,26.4c-0.2-0.3-0.4-0.6-0.6-0.8c-0.8-0.8-1.8-1.4-3-1.4c-1.6,0-3.1,0.9-3.8,2.4c-0.2,0.5,0,1,0.5,1.3
	C25.8,28,26,28,26.1,28c0.4,0,0.7-0.2,0.9-0.6c0.4-0.8,1.1-1.3,2-1.3c0.9,0,1.7,0.5,2,1.3c0.1,0.1,0.1,0.2,0.2,0.3
	c0.3,0.2,0.6,0.3,0.9,0.2c0.1,0,0.1,0,0.1-0.1c0.5-0.2,0.7-0.8,0.5-1.3C32.7,26.5,32.7,26.5,32.6,26.4"/>
		<path d="M18.6,28c0.2,0,0.3-0.1,0.4-0.1c0.5-0.3,0.6-0.8,0.4-1.3c-0.7-1.4-2.1-2.2-3.6-2.2c-1.1,0-2.2,0.5-3,1.4
			c-0.2,0.3-0.4,0.5-0.6,0.8c-0.3,0.5-0.1,1,0.4,1.3h0.1c0.3,0.2,0.7,0.1,0.9-0.1l0.3-0.3c0.4-0.7,1.1-1.2,1.9-1.2
			c0.8,0,1.6,0.5,1.9,1.2C18,27.7,18.3,28,18.6,28"/>
		<path d="M26.1,34.6h-7.3c-0.3,0-0.6,0.2-0.7,0.4c-0.2,0.2-0.3,0.5-0.2,0.8c0.5,2.1,2.4,3.6,4.5,3.6
			c2.1,0,4.1-1.5,4.5-3.6c0.1-0.3,0-0.6-0.2-0.8C26.7,34.7,26.3,34.6,26.1,34.6"/>
		<path d="M37.4,31v-2.3v-2.9c0.3,0.2,0.6,0.4,0.8,0.7c0.5,0.5,0.7,1.2,0.7,1.9C39,29.6,38.4,30.6,37.4,31 M34,15.1
			c-0.2,0-0.5,0-0.7,0.1c-7.1,1.6-14.5,1.6-21.6,0h-0.1c-0.2-0.1-0.5-0.1-0.7-0.1c-1.9,0-3.4,1.6-3.4,3.4v5.1
			c-0.2,0.1-0.4,0.2-0.6,0.2c-0.2-0.7-0.3-1.4-0.3-2V10.4c0.1-4.2,3.3-7.5,7.3-8v2.3v0.3C14,5.2,14,5.3,14,5.4
			c0.1,0.2,0.2,0.3,0.3,0.4c0.1,0,0.1,0.1,0.1,0.1l0.1,0.1c0.1,0,0.1,0.1,0.1,0.1C14.6,6,14.6,6,14.7,6L14.9,6H15
			c0.2,0,0.4-0.1,0.5-0.2c0.1-0.1,0.2-0.1,0.3-0.2c0.2-0.1,0.4-0.3,0.5-0.4c0.5-0.3,0.9-0.5,1.5-0.7c0.6-0.2,1.3-0.4,2-0.5V5v0.9V6
			v0.3C19.8,6.6,20,6.9,20.4,7h0.1c0.1,0,0.1,0,0.2,0.1l0.6,0.1L24,7.6l10.7,1.9h0.1c2,0.1,3.5,1.7,3.6,3.6v11
			c-0.3-0.2-0.6-0.3-0.8-0.4v-5.2C37.4,16.6,35.9,15.1,34,15.1 M35.6,23.6v0.9v0.9v4.4v1.5v0.5v0.4c0,0.3,0,0.6-0.1,0.9
			c-0.5,6.8-6.1,12.2-13.1,12.2c-7,0-12.7-5.5-13.1-12.3c0-0.3-0.1-0.5-0.1-0.8v-0.2v-0.9v-0.9V28v-2.6v-0.9v-0.9V19v-0.4
			c0-0.9,0.9-1.7,1.8-1.6h0.1c7.4,1.6,15.1,1.6,22.5,0c0.1,0,0.2-0.1,0.3-0.1c0.9,0,1.6,0.7,1.6,1.6V23.6z M7.4,28.7v2.2
			c-0.9-0.5-1.6-1.5-1.6-2.6c0-0.5,0.1-0.9,0.3-1.3c0.3-0.6,0.7-1,1.3-1.4L7.4,28.7L7.4,28.7z M40.2,13.1c-0.1-2.9-2.4-5.2-5.3-5.4
			L21.6,5.3V3.2c0-0.5-0.4-0.9-0.9-0.9c-1.8,0-3.4,0.4-4.8,1.2v-2c0-0.5-0.4-0.9-0.9-0.9c-5.6,0-10,4.3-10.2,9.8v11.5
			C4.7,23,4.9,24,5.3,25C4.5,25.9,4,27,4,28.3c0,2.2,1.5,4.1,3.5,4.6c0.3,8,6.9,14.4,15,14.4c8,0,14.6-6.3,15-14.2
			c2-0.6,3.5-2.4,3.5-4.6c0-0.9-0.3-1.8-0.7-2.6C40.2,23.7,40.2,13.2,40.2,13.1"/>
	</symbol>

	<symbol id="guy-02" viewBox="0 0 45 48">
		<path d="M25.8,41.2c-0.5-0.2-1.1,0-1.3,0.5c-0.4,0.8-1.2,1.3-2.1,1.3c-0.9,0-1.7-0.5-2.1-1.3
			c-0.2-0.5-0.8-0.7-1.3-0.5c-0.5,0.2-0.7,0.8-0.5,1.3c0.6,1.5,2.1,2.5,3.8,2.5c1.7,0,3.1-1,3.8-2.5C26.6,42,26.3,41.4,25.8,41.2"/>
		<path d="M39.5,17.8c-0.1,1.6-0.1,4.1-0.1,6.7c-0.5-0.4-1-0.6-1.5-0.8v-5.2c0-1.9-1.6-3.5-3.5-3.5
			c-0.2,0-0.5,0-0.7,0.1h-0.1c-7.3,1.6-14.8,1.6-22.1,0C11.2,15,10.9,15,10.7,15c-1.9,0-3.5,1.6-3.5,3.5v5.3c-0.5,0.2-1,0.4-1.4,0.6
			c0-4.9-0.3-11.4-0.3-11.8c0-3.5,2.9-6.4,6.4-6.4c0.6,0,1.1,0.1,1.7,0.2l0.5,0.2l0.4-0.4C17.3,3.5,21,1.9,25,1.9
			c8.1,0,14.6,6.6,14.6,14.6C39.6,16.9,39.6,17.3,39.5,17.8 M37.9,31.2v-5.3c1,0.5,1.6,1.5,1.6,2.7C39.5,29.7,38.8,30.6,37.9,31.2
			 M35.9,23.5v1v1v6v1v0.2c0,0.3,0,0.5-0.1,0.8c-0.4,7.1-6.2,12.7-13.4,12.7c-7.1,0-12.9-5.5-13.4-12.5c0-0.3-0.1-0.6-0.1-1v-1v-6v-1
			v-1v-5.2c0-0.9,0.7-1.6,1.6-1.6c0.1,0,0.2,0,0.3,0.1c7.6,1.7,15.5,1.7,23.1,0h0.1c1-0.2,1.9,0.6,1.9,1.6V23.5z M7.1,31.3L7.1,31.3
			c-1-0.5-1.6-1.5-1.6-2.6c0-0.3,0.1-0.6,0.2-1C6,26.9,6.4,26.4,7.1,26V31.3z M41.5,16.6C41.5,7.4,34.1,0,25,0
			c-4.3,0-8.4,1.7-11.5,4.7c-0.5-0.1-1.1-0.2-1.7-0.2c-4.6,0-8.3,3.7-8.3,8.4C3.5,13,4,23,3.8,27.4c-0.1,0.4-0.2,0.9-0.2,1.3
			c0,2.2,1.5,4.2,3.6,4.8C7.6,41.5,14.3,48,22.5,48c8.3,0,15-6.6,15.4-14.8c2.1-0.6,3.6-2.5,3.6-4.8v-0.2c0-0.2,0-0.3-0.1-0.4
			c-0.2-3.6-0.1-7.9,0-10C41.5,17.4,41.5,16.9,41.5,16.6"/>
		<path d="M32.8,26.1c0,0.9-0.5,1.7-1.2,1.8h-0.1h-4.5c-0.4,0-0.9-0.3-1.1-0.7c0.2-0.4,0.6-0.6,1.1-0.6
			c0.5,0,0.9,0.3,1.1,0.7c0.2,0.3,0.4,0.4,0.7,0.4c0.1,0,0.3-0.1,0.4-0.1c0.4-0.2,0.5-0.7,0.4-1.1c-0.1-0.2-0.2-0.3-0.3-0.4
			c-0.5-0.7-1.4-1.1-2.2-1.1c-0.4,0-0.7,0.1-1.1,0.2c0.1-0.3,0.3-0.5,0.5-0.7c0.2-0.1,0.4-0.2,0.6-0.2h4.5c0.2,0,0.4,0.1,0.6,0.2
			c0.3,0.2,0.5,0.5,0.6,1C32.7,25.6,32.8,25.8,32.8,26.1 M18.1,27.9h-4.5h-0.1c-0.7-0.1-1.3-0.9-1.3-1.8c0-0.3,0.1-0.5,0.2-0.8
			c0.1-0.3,0.3-0.6,0.6-0.8c0.2-0.1,0.4-0.2,0.6-0.2h4.5c0.2,0,0.4,0.1,0.6,0.2c0.2,0.1,0.3,0.3,0.5,0.5c-0.3-0.1-0.6-0.2-1-0.2
			c-1,0-1.8,0.5-2.3,1.3c-0.1,0.2-0.2,0.3-0.3,0.5c-0.2,0.4,0,0.9,0.4,1.1c0.4,0.2,0.9,0,1.1-0.4c0.2-0.5,0.6-0.7,1.2-0.7
			c0.4,0,0.8,0.2,1.1,0.6C19,27.5,18.6,27.9,18.1,27.9 M34,24.3c-0.2-0.4-0.5-0.8-0.9-1.1c-0.5-0.4-1.1-0.6-1.7-0.6h-4.5
			c-1.1,0-2.1,0.7-2.6,1.8h-3.6c-0.5-1.1-1.5-1.8-2.6-1.8h-4.5c-1,0-2,0.6-2.5,1.6c-0.1,0.1-0.1,0.2-0.1,0.3H9.7V26h0.6h0.2v0.2
			c0.1,0.9,0.4,1.8,1,2.4c0.5,0.5,1.1,0.9,1.8,0.9h0.2H18c1.7,0,2.9-1.6,3-3.4h2.9c0,1.9,1.3,3.4,3,3.4h4.5h0.1
			c0.7-0.1,1.3-0.4,1.9-0.9c0.5-0.5,0.9-1.3,1-2.1c0-0.1,0.1-0.3,0.1-0.4h0.5h0.4v-1.6H34C34,24.4,34,24.4,34,24.3"/>
		<path d="M32.6,31.3c-0.1-0.1-0.2-0.1-0.3-0.1c-0.3,0-0.6,0.2-0.8,0.5c-1,2.5-4,4.5-7.6,5.1c-3.6,0.7-7.1-0.2-8.9-2.2
			c-0.3-0.3-0.8-0.4-1.1-0.1s-0.4,0.8-0.1,1.1c1.7,1.9,4.6,2.9,7.8,2.9c0.9,0,1.7-0.1,2.6-0.2c4.2-0.7,7.6-3.2,8.9-6.1
			c0.1-0.1,0.1-0.2,0.1-0.3C33.2,31.8,33,31.5,32.6,31.3"/>
	</symbol>

	<symbol id="guy-03" viewBox="0 0 45 48">
		<path d="M15.6,34.1c-0.6,0.1-1,0.6-1,1.2c0,0.4,0.2,0.7,0.5,0.8c2.3,1.3,4.4,2.3,7.4,2.3c3,0,5.1-1,7.4-2.3
	c0.5-0.3,0.7-0.9,0.4-1.5c-0.3-0.5-0.9-0.7-1.4-0.4c0,0,0,0,0,0c-2.2,1.2-3.8,2-6.3,2c-2.5,0-4.1-0.8-6.3-2
	C16,34.2,15.8,34.1,15.6,34.1 M28.8,23.4c-1.2,0-2.1,1-2.1,2.1c0,1.2,0.9,2.1,2.1,2.1c1.2,0,2.1-1,2.1-2.1
	C30.9,24.4,30,23.4,28.8,23.4 M16.2,23.4c-1.2,0-2.1,1-2.1,2.1c0,1.2,0.9,2.1,2.1,2.1s2.1-1,2.1-2.1C18.3,24.4,17.3,23.4,16.2,23.4
	 M19.3,3.2c5.4,0,9.5,0.8,12.4,2.2c1.6,3.4,2,5.8,1.8,7.1c-0.2,1.3-0.8,1.7-1.9,2c-2.2,0.5-6.5-1-8.6-2.6c-1.4-1-3.1-0.8-4.4-0.1
	c-1.3,0.7-2.4,1.8-3.3,3c-1,1.2-1.4,2.6-2,3.5c-0.6,0.9-1.2,1.5-2.9,1.5c-0.6,0-1.1,0.5-1.1,1.1c0,0.6,0.5,1.1,1,1.1c0,0,0,0,0,0
	c2.3,0,3.8-1.1,4.7-2.4c0.8-1.3,1.3-2.6,1.9-3.4c0.8-1,1.8-2,2.7-2.4c0.9-0.5,1.5-0.5,2.2,0c2.6,1.9,6.9,3.7,10.3,2.9
	c1.7-0.4,3.2-1.7,3.5-3.8c0.2-1.4,0-3-0.7-5c2.3,2.5,3.4,6.1,3.4,11.4v2.7c0,0.4,0.2,0.7,0.5,0.9c0.9,0.5,1.6,1.6,1.6,2.8
	c0,1.7-1.2,3.2-2.6,3.2c-0.5,0-0.9,0.3-1,0.8c-0.8,2.6-1.8,5.3-2.8,7.6c-1,2.3-2.1,4.2-2.7,4.8c-4.9,5.3-12.6,5.3-17.4,0
	c0,0,0,0,0,0c-0.6-0.6-1.7-2.5-2.7-4.8c-1-2.3-2.1-5-2.8-7.6c-0.1-0.4-0.5-0.8-1-0.8c-1.4,0-2.6-1.5-2.6-3.2c0-1.2,0.6-2.3,1.6-2.8
	c0.3-0.2,0.5-0.6,0.5-0.9v-2.7c0-5.6,1.1-8.6,2.7-10.2c1.6-1.6,3.7-2.1,6.2-2.1c0.3,0,0.6-0.1,0.8-0.4L19.3,3.2z M18.7,1
	c-0.3,0-0.5,0.2-0.7,0.4l-2.9,3.4c-2.6,0.1-5.3,0.6-7.2,2.7c-2.1,2.2-3.3,5.8-3.3,11.7v2.2c-1.3,1-2.1,2.5-2.1,4.3
	c0,2.5,1.6,4.7,3.9,5.1c0.8,2.5,1.8,5.1,2.8,7.3c1.1,2.4,2.1,4.3,3.1,5.4v0c5.6,6.1,14.8,6.1,20.5,0c1-1.1,2-3,3.1-5.4
	c1-2.2,2-4.8,2.8-7.3c2.3-0.5,3.9-2.7,3.9-5.1c0-1.7-0.8-3.3-2.1-4.3v-2.2c0-6.3-1.5-11-5.1-14C31.7,2.2,26.3,1,18.7,1
	C18.8,1,18.8,1,18.7,1"/>
	</symbol>

	<symbol id="girl-01" viewBox="0 0 45 48">
		<path  d="M15.4,18.9c-1.8,0-3.3,1.5-3.3,3.3s1.5,3.3,3.3,3.3s3.3-1.5,3.3-3.3S17.3,18.9,15.4,18.9 M15.4,27.3
	c-2.9,0-5.2-2.3-5.2-5.1s2.3-5.1,5.2-5.1s5.2,2.3,5.2,5.1S18.3,27.3,15.4,27.3"/>
		<path d="M28.7,18.9c-1.8,0-3.3,1.5-3.3,3.3s1.5,3.3,3.3,3.3c1.8,0,3.3-1.5,3.3-3.3S30.5,18.9,28.7,18.9 M28.7,27.3
			c-2.9,0-5.2-2.3-5.2-5.1s2.3-5.1,5.2-5.1s5.2,2.3,5.2,5.1S31.5,27.3,28.7,27.3"/>
		<path d="M25.4,22.6h-1.9c0-0.8-0.6-1.4-1.4-1.4c-0.8,0-1.4,0.6-1.4,1.4h-1.9c0-1.8,1.5-3.3,3.3-3.3
			C23.9,19.3,25.4,20.8,25.4,22.6"/>
		<path d="M11.8,15c-1.3,2.7-2.3,5.4-2.3,8c0,9.2,8.9,15.9,12.7,15.9c5,0,12.7-6.8,12.7-15.9c0-2.7-0.6-5.5-1.9-8.1
			c-1.7,0.5-3.5,0.8-5.2,0.8c-3.4,0-6.2-1-7.8-1.7c0.2,0.4,0.4,0.8,0.7,1.1c0.2,0.3,0.2,0.6,0.1,0.9c-0.1,0.3-0.4,0.5-0.7,0.5
			c-0.3,0-0.7,0.1-1.1,0.1C16.3,16.6,13.2,15.6,11.8,15 M22.1,40.8c-5.5,0-14.6-8.3-14.6-17.8c0-3.2,1.4-6.5,2.9-9.6
			c0.2-0.5,0.8-0.7,1.2-0.4c0,0,3.6,1.6,6.5,1.8c-0.4-0.8-0.7-1.7-0.5-2.3c0.1-0.4,0.4-0.7,0.7-0.9c0.3-0.1,0.7-0.1,0.9,0.1
			c0,0,3.5,2.2,8.4,2.2c1.8,0,3.6-0.3,5.4-0.9c0.4-0.2,0.9,0,1.1,0.4c1.6,3,2.4,6.3,2.4,9.6c0,4.5-1.8,8.9-4.9,12.5
			C28.9,38.8,25.3,40.8,22.1,40.8"/>
		<path d="M9.5,44.3c-5.9,0-9.1-3.1-9.3-3.2C0,40.8-0.1,40.5,0,40.2c0.1-0.3,0.4-0.6,0.7-0.7c3-0.7,3.3-10.9,3.4-19.2
			c0-1.3,0.1-2.5,0.1-3.8C4.5,7.1,14,1.5,23,1.5h0.1C31,1.5,40.3,6,40.6,18.4c0,1.6,0.1,3,0.1,4.4c0.3,14.9,0.6,15.5,3.6,16.9
			c0.6,0.3,0.9,0.9,0.7,1.5c-0.7,1.7-8.2,3.9-11.7,2.6c-0.5-0.2-0.7-0.7-0.6-1.2c0.2-0.5,0.7-0.7,1.2-0.5c2.3,0.9,6.7-0.3,8.6-1.1
			c-3.4-1.9-3.4-5.2-3.7-18c0-1.3-0.1-2.8-0.1-4.4C38.5,7.4,30.1,3.4,23.1,3.4H23c-8.1,0-16.6,4.9-16.9,13.2c0,1.2-0.1,2.5-0.1,3.7
			C5.9,29.7,5.7,38,2.7,40.6c1.5,0.9,4.5,2.3,9,1.7c0.5-0.1,1,0.3,1.1,0.8c0.1,0.5-0.3,1-0.8,1.1C11.1,44.3,10.3,44.3,9.5,44.3"/>
		<path d="M14.2,46.5c-0.3,0-0.6-0.1-0.7-0.4c-0.3-0.4-0.3-1,0.1-1.3c1.4-1.1,1.4-5.2,1.1-7.6c-0.1-0.5,0.3-1,0.8-1.1
			c0.5-0.1,1,0.3,1.1,0.8c0.1,0.7,0.9,7.1-1.8,9.3C14.6,46.4,14.4,46.5,14.2,46.5"/>
		<path d="M30.7,46.5c-0.2,0-0.4-0.1-0.6-0.2c-2.7-2.1-1.9-8.6-1.8-9.3c0.1-0.5,0.6-0.9,1.1-0.8
			c0.5,0.1,0.9,0.5,0.8,1.1c-0.3,2.3-0.3,6.4,1.1,7.6c0.4,0.3,0.5,0.9,0.1,1.3C31.2,46.4,30.9,46.5,30.7,46.5"/>
		<path d="M14.2,24.1c-0.1,0-0.2,0-0.3,0c-0.5-0.2-0.8-0.7-0.6-1.2l0.9-2.8c0.2-0.5,0.7-0.8,1.2-0.6
			c0.5,0.2,0.8,0.7,0.6,1.2L15,23.4C14.9,23.8,14.5,24.1,14.2,24.1"/>
		<path d="M27.4,24.1c-0.1,0-0.2,0-0.3,0c-0.5-0.2-0.8-0.7-0.6-1.2l0.9-2.8c0.2-0.5,0.7-0.8,1.2-0.6
			c0.5,0.2,0.8,0.7,0.6,1.2l-0.9,2.8C28.1,23.8,27.8,24.1,27.4,24.1"/>
		<path d="M22.3,35.4c-1.7,0-3.1-0.6-4-1.2c-0.4-0.3-0.5-0.9-0.2-1.3c0.3-0.4,0.9-0.5,1.3-0.2c0.2,0.1,4.1,2.7,7.7-1.7
			c0.3-0.4,0.9-0.5,1.3-0.1c0.4,0.3,0.5,0.9,0.1,1.3C26.5,34.6,24.3,35.4,22.3,35.4"/>
		<path d="M22.2,30.6c-0.1,0-0.1,0-0.2,0c-1.8-0.4-2.4-1.4-2.6-2c-0.3-1.1,0.1-2.3,1.1-3.3c0.4-0.4,1-0.4,1.3,0
			c0.4,0.4,0.4,1,0,1.3c-0.5,0.5-0.8,1.1-0.7,1.5c0.1,0.4,0.8,0.6,1.1,0.7c0.5,0.1,0.8,0.6,0.7,1.1C23,30.3,22.6,30.6,22.2,30.6"/>
	</symbol>

	<symbol id="arrow-tree" viewBox="0 0 873 83" fill="none" stroke="#D9332B" stroke-width="2">
		<line x1="426.5" y1="0" x2="426.5" y2="48.7"/>
		<line x1="5.5" y1="48.7" x2="5.5" y2="80.7"/>
		<polyline points="10.2,75.6 5.5,80.7 0.8,75.6 "/>
		<line x1="280.2" y1="48.7" x2="280.2" y2="80.7"/>
		<polyline points="284.9,75.6 280.2,80.7 275.5,75.6 "/>
		<line x1="867.5" y1="48.7" x2="867.5" y2="80.7"/>
		<polyline points="862.8,75.6 867.5,80.7 872.2,75.6 "/>
		<line x1="582.8" y1="48.7" x2="582.8" y2="80.7"/>
		<polyline points="578.1,75.6 582.8,80.7 587.5,75.6 "/>
		<line x1="867" y1="49.1" x2="5" y2="49.1"/>
	</symbol>

	<symbol id="arrow-two-sides" fill="none" stroke="#D9332B" stroke-width="2">
		<line x1="5.5" y1="1.9" x2="5.5" y2="42"/>
		<polyline points="0.7,6.9 5.5,1.9 10.2,6.9"/>
		<polyline points="10.2,37 5.5,42 0.7,37"/>
	</symbol>

	<symbol id="arrow-tree-2" viewBox="0 0 348 89">
		<g  fill="none" stroke="#D9332B" stroke-width="2" stroke-linecap="round" stroke-linejoin="round">
			<line stroke-dasharray="0,5.981" x1="7" y1="44.7" x2="309" y2="44.7"/>
			<line stroke-dasharray="0,5.707" x1="340.3" y1="83.3" x2="320.4" y2="83.6"/>
			<line stroke-dasharray="0,6.01" x1="317.5" y1="77.6" x2="317.5" y2="8.5"/>
			<line stroke-dasharray="0,5.706" x1="323.2" y1="5.5" x2="343.2" y2="5.5"/>
			<path d="M312,44.7L312,44.7 M1,44.7	L1,44.7"/>
		</g>
		<g fill="none" stroke="#D9332B" stroke-width="2">
			<path stroke-linecap="round" stroke-linejoin="round" d="M346,5.5L346,5.5
				 M317.5,5.5L317.5,5.5 M317.5,83.6L317.5,83.6 M346,83.3L346,83.3"/>
			<polyline points="340.9,78.6 346,83.3 341,88 "/>
			<polyline points="341,0.7 346,5.5 341,10.2 "/>
		</g>
	</symbol>

	<symbol id="info" viewBox="0 0 20 20">
		<path class="Color-Change"  d="M10,20c5.5,0,10-4.5,10-10S15.5,0,10,0S0,4.5,0,10S4.5,20,10,20"/>
		<path fill="#fff" d="M7.5,14.4l1.2-0.3V8.4L7.3,8.2V6.7h3.8v7.4l1.2,0.3v1.5H7.5V14.4z M11.1,4.5H8.7V2.6h2.5V4.5z"/>
	</symbol>
	<symbol id="boat" viewBox="0 0 227.3 227.3">
		<path class="st0" d="M166.2,199.7c-8.2,0-12.4-4.6-15.8-8.3c-3.1-3.4-5.5-6-10.5-6c-5,0-7.4,2.7-10.5,6c-3.4,3.7-7.6,8.3-15.8,8.3c-8.2,0-12.4-4.6-15.8-8.3c-3.1-3.3-5.5-6-10.5-6c-5,0-7.4,2.7-10.5,6c-3.4,3.7-7.6,8.3-15.8,8.3s-12.4-4.6-15.8-8.3c-3.1-3.3-5.5-6-10.5-6c-2,0-3.6-1.6-3.6-3.6s1.6-3.6,3.6-3.6c8.1,0,12.4,4.6,15.8,8.3c3.1,3.4,5.5,6,10.5,6c5,0,7.4-2.7,10.5-6c3.4-3.7,7.6-8.3,15.8-8.3s12.4,4.6,15.8,8.3c3.1,3.4,5.5,6,10.5,6c5,0,7.4-2.7,10.5-6c3.4-3.7,7.6-8.3,15.8-8.3s12.4,4.6,15.8,8.3c3.1,3.4,5.5,6,10.5,6c5,0,7.4-2.7,10.5-6c3.4-3.7,7.6-8.3,15.8-8.3c2,0,3.6,1.6,3.6,3.6s-1.6,3.6-3.6,3.6c-5,0-7.4,2.7-10.5,6C178.6,195.1,174.3,199.7,166.2,199.7z"/><path class="st0" d="M166.2,185.3c-8.2,0-12.4-4.6-15.8-8.3c-3.1-3.4-5.5-6-10.5-6c-5,0-7.4,2.7-10.5,6c-3.4,3.7-7.6,8.3-15.8,8.3c-8.2,0-12.4-4.6-15.8-8.3c-3.1-3.3-5.5-6-10.5-6c-5,0-7.4,2.7-10.5,6c-3.4,3.7-7.6,8.3-15.8,8.3s-12.4-4.6-15.8-8.3c-3.1-3.3-5.5-6-10.5-6c-2,0-3.6-1.6-3.6-3.6s1.6-3.6,3.6-3.6c8.1,0,12.4,4.6,15.8,8.3c3.1,3.4,5.5,6,10.5,6c5,0,7.4-2.7,10.5-6c3.4-3.7,7.6-8.3,15.8-8.3s12.4,4.6,15.8,8.3c3.1,3.4,5.5,6,10.5,6c5,0,7.4-2.7,10.5-6c3.4-3.7,7.6-8.3,15.8-8.3s12.4,4.6,15.8,8.3c3.1,3.4,5.5,6,10.5,6c5,0,7.4-2.7,10.5-6c3.4-3.7,7.6-8.3,15.8-8.3c2,0,3.6,1.6,3.6,3.6s-1.6,3.6-3.6,3.6c-5,0-7.4,2.7-10.5,6C178.6,180.7,174.3,185.3,166.2,185.3z"/><path class="st0" d="M149.5,174.6c-0.5,0-1-0.1-1.5-0.3c-1.8-0.8-2.6-3-1.7-4.8l26.8-56.9l-59.4-13.2l-59.4,13.2L81,169.5c0.8,1.8,0.1,3.9-1.7,4.8c-1.8,0.8-3.9,0.1-4.8-1.7l-28.7-61c-0.5-1-0.5-2.1,0-3.1c0.5-1,1.4-1.7,2.4-1.9l64.5-14.3c0.5-0.1,1-0.1,1.6,0l64.5,14.3c1.1,0.2,2,0.9,2.4,1.9c0.5,1,0.5,2.1,0,3.1l-28.7,61C152.1,173.8,150.8,174.6,149.5,174.6z"/><path class="st0" d="M113.6,56.3c-2,0-3.6-1.6-3.6-3.6V31.2c0-2,1.6-3.6,3.6-3.6s3.6,1.6,3.6,3.6v21.5C117.2,54.7,115.6,56.3,113.6,56.3z"/><path class="st0" d="M128,34.7H99.3c-2,0-3.6-1.6-3.6-3.6s1.6-3.6,3.6-3.6H128c2,0,3.6,1.6,3.6,3.6S130,34.7,128,34.7z"/><path class="st0" d="M113.6,185.3c-2,0-3.6-1.6-3.6-3.6V110c0-2,1.6-3.6,3.6-3.6s3.6,1.6,3.6,3.6v71.7C117.2,183.7,115.6,185.3,113.6,185.3z"/><path class="st0" d="M171,110c-2,0-3.6-1.6-3.6-3.6V87.9l-53.8-10.1L59.8,87.9v18.5c0,2-1.6,3.6-3.6,3.6c-2,0-3.6-1.6-3.6-3.6V84.9c0-1.7,1.2-3.2,2.9-3.5L113,70.7c0.4-0.1,0.9-0.1,1.3,0l57.4,10.8c1.7,0.3,2.9,1.8,2.9,3.5v21.5C174.6,108.4,173,110,171,110z"/><path class="st0" d="M156.7,81.4c-2,0-3.6-1.6-3.6-3.6V62.9l-39.4-6.6l-39.4,6.6v14.9c0,2-1.6,3.6-3.6,3.6c-2,0-3.6-1.6-3.6-3.6V59.8c0-1.8,1.3-3.2,3-3.5l43-7.2c0.4-0.1,0.8-0.1,1.2,0l43,7.2c1.7,0.3,3,1.8,3,3.5v17.9C160.2,79.8,158.6,81.4,156.7,81.4z"/><path class="st0" d="M171,88.5c-2,0-3.6-1.6-3.6-3.6V67c0-2,1.6-3.6,3.6-3.6s3.6,1.6,3.6,3.6v17.9C174.6,86.9,173,88.5,171,88.5z"/><path class="st0" d="M56.3,88.5c-2,0-3.6-1.6-3.6-3.6V67c0-2,1.6-3.6,3.6-3.6c2,0,3.6,1.6,3.6,3.6v17.9C59.8,86.9,58.2,88.5,56.3,88.5z"/><path class="st0" d="M84.9,59.8c-2,0-3.6-1.6-3.6-3.6V38.3c0-2,1.6-3.6,3.6-3.6s3.6,1.6,3.6,3.6v17.9C88.5,58.2,86.9,59.8,84.9,59.8z"/><path class="st0" d="M142.3,59.8c-2,0-3.6-1.6-3.6-3.6V38.3c0-2,1.6-3.6,3.6-3.6s3.6,1.6,3.6,3.6v17.9C145.9,58.2,144.3,59.8,142.3,59.8z"/><line class="st0" x1="68.9" y1="94.3" x2="79.1" y2="92.1"/><path class="st0" d="M68.9,97.9c-1.7,0-3.1-1.2-3.5-2.8c-0.4-1.9,0.8-3.8,2.8-4.2l10.2-2.1c1.9-0.4,3.8,0.8,4.2,2.8c0.4,1.9-0.8,3.8-2.8,4.2l-10.2,2.1C69.4,97.8,69.2,97.9,68.9,97.9z"/><line class="st0" x1="91.9" y1="89.1" x2="102.1" y2="87"/><path class="st0" d="M91.9,92.7c-1.7,0-3.1-1.2-3.5-2.8c-0.4-1.9,0.8-3.8,2.8-4.3l10.2-2.1c2-0.4,3.8,0.8,4.3,2.8c0.4,1.9-0.8,3.8-2.8,4.3l-10.2,2.1C92.4,92.7,92.2,92.7,91.9,92.7z"/><line class="st0" x1="130.8" y1="88.5" x2="120.6" y2="86.4"/><path class="st0" d="M130.8,92.1c-0.3,0-0.5,0-0.7-0.1l-10.2-2.1c-1.9-0.4-3.2-2.3-2.8-4.2c0.4-1.9,2.3-3.2,4.3-2.8l10.2,2.1c1.9,0.4,3.2,2.3,2.8,4.2C134,91,132.5,92.1,130.8,92.1z"/><line class="st0" x1="154.8" y1="93.8" x2="144.6" y2="91.6"/><path class="st0" d="M154.8,97.4c-0.3,0-0.5,0-0.7-0.1l-10.2-2.1c-1.9-0.4-3.2-2.3-2.8-4.2c0.4-1.9,2.4-3.2,4.3-2.8l10.2,2.1c1.9,0.4,3.2,2.3,2.8,4.2C157.9,96.2,156.4,97.4,154.8,97.4z"/>
	</symbol>
</svg>
